<?xml version="1.0" encoding="utf-8"?>
<!-- Generator: Adobe Illustrator 16.0.0, SVG Export Plug-In . SVG Version: 6.00 Build 0)  -->
<!DOCTYPE svg PUBLIC "-//W3C//DTD SVG 1.1//EN" "http://www.w3.org/Graphics/SVG/1.1/DTD/svg11.dtd">
<svg version="1.1" id="Layer_1" xmlns="http://www.w3.org/2000/svg" xmlns:xlink="http://www.w3.org/1999/xlink" x="0px" y="0px"
	 width="266.9px" height="266.9px" viewBox="0 0 266.9 266.9" style="enable-background:new 0 0 266.9 266.9;" xml:space="preserve"
	>
<style type="text/css">
<![CDATA[
	.st0{fill:#50AAE1;}
	.st1{fill:#FFFFFF;}
]]>
</style>
<path id="Blue_1_" class="st0" d="M248.1,262.3c7.9,0,14.2-6.4,14.2-14.2V18.8c0-7.9-6.4-14.2-14.2-14.2H18.8
	C11,4.6,4.6,11,4.6,18.8v229.3c0,7.9,6.4,14.2,14.2,14.2H248.1L248.1,262.3z"/>
<path id="path5" class="st1" d="M227.2,75.3c-6.9,3.1-14.3,5.1-22.1,6.1c7.9-4.8,14-12.3,16.9-21.3c-7.4,4.4-15.7,7.6-24.4,9.3
	c-7-7.5-17-12.1-28.1-12.1c-21.2,0-38.5,17.2-38.5,38.5c0,3,0.3,6,1,8.8c-32-1.6-60.3-16.9-79.3-40.2c-3.3,5.7-5.2,12.3-5.2,19.3
	c0,13.3,6.8,25.1,17.1,32c-6.3-0.2-12.2-1.9-17.4-4.8c0,0.2,0,0.3,0,0.5c0,18.6,13.3,34.2,30.9,37.7c-3.2,0.9-6.6,1.3-10.1,1.3
	c-2.5,0-4.9-0.2-7.2-0.7c4.9,15.3,19.1,26.4,35.9,26.7c-13.2,10.3-29.8,16.5-47.8,16.5c-3.1,0-6.2-0.2-9.2-0.5
	c17,10.9,37.2,17.3,59,17.3c70.8,0,109.5-58.6,109.5-109.5c0-1.7,0-3.3-0.1-5C215.5,89.8,222,83,227.2,75.3L227.2,75.3z"/>
</svg>
