<?xml version="1.0" encoding="utf-8"?>
<!-- Generator: Adobe Illustrator 16.0.0, SVG Export Plug-In . SVG Version: 6.00 Build 0)  -->
<!DOCTYPE svg PUBLIC "-//W3C//DTD SVG 1.1//EN" "http://www.w3.org/Graphics/SVG/1.1/DTD/svg11.dtd">
<svg version="1.1" id="Layer_1" xmlns="http://www.w3.org/2000/svg" xmlns:xlink="http://www.w3.org/1999/xlink" x="0px" y="0px"
	 width="266.9px" height="266.9px" viewBox="0 0 266.9 266.9" style="enable-background:new 0 0 266.9 266.9;" xml:space="preserve"
	>
<style type="text/css">
<![CDATA[
	.st0{fill:#FFFFFF;}
	.st1{fill:#416793;}
]]>
</style>
<path id="Blue_1_" class="st1" d="M248.1,262.3c7.9,0,14.2-6.4,14.2-14.2V18.8c0-7.9-6.4-14.2-14.2-14.2H18.8
	C11,4.6,4.6,11,4.6,18.8v229.3c0,7.9,6.4,14.2,14.2,14.2H248.1L248.1,262.3z"/>
<path class="st0" d="M196.1,191.9c-0.3,0-0.6,0-0.9,0c-10.2-1.7-17.1-9-23-15.7c-3.3-3.8-8.5-12.4-14.6-11.5
	c-8.7,1.4-4.4,16.5-8,22.9c-2.9,5.2-15.4,4.3-23.9,3.3c-27.1-2.9-40.9-17.6-53-33.4c-13-16.9-23.1-34.5-32.4-53.9
	c-3-6.3-7-13.2-7-21c4.4-3.6,11.6-2.4,18.8-2.4c6.1,0,15.7-1.4,20.2,1c2.7,1.4,5.4,8.7,7.5,13.4c4.9,10.7,9.5,18.4,15.5,27.2
	c2.6,3.8,6.6,11,11.3,10c4.5-0.9,5-12.3,5.2-19.6c0.2-8.3,0-18.5-2.3-22.9c-2.2-4.1-6.2-4.2-10.3-6.7c3.4-6.9,12.7-7.6,23.9-7.6
	c9.4,0,22.6-1.1,26.3,5.3c3.7,6.4,1.2,18,0.9,26.7c-0.3,9.8-1.9,19.8,4.7,24.3c5.1-0.6,7.8-5.6,10.8-9.5
	c6.5-8.6,10.5-16.1,15.5-27.2c2.1-4.6,4.3-12.4,8-13.8c5.7-2.2,14.7-0.5,23-0.5c6.8,0,18.9-1.9,21.1,2.9c1.8,4-3.5,14-5.2,16.7
	c-6.3,10.5-12.5,17.1-19.2,26.2c-2.7,3.6-8.3,9.5-8,15.3c0.3,4.4,4.6,7.8,8,11c7.3,6.9,12.4,11.9,18.3,19.6c2.2,2.9,7,9.1,6.6,12.9
	C232.2,196.4,205.2,189.1,196.1,191.9z"/>
</svg>
