<?xml version="1.0" encoding="utf-8"?>
<!-- Generator: Adobe Illustrator 16.0.0, SVG Export Plug-In . SVG Version: 6.00 Build 0)  -->
<!DOCTYPE svg PUBLIC "-//W3C//DTD SVG 1.1//EN" "http://www.w3.org/Graphics/SVG/1.1/DTD/svg11.dtd">
<svg version="1.1" id="Layer_1" xmlns="http://www.w3.org/2000/svg" xmlns:xlink="http://www.w3.org/1999/xlink" x="0px" y="0px"
	 width="266.9px" height="266.9px" viewBox="0 0 266.9 266.9" style="enable-background:new 0 0 266.9 266.9;" xml:space="preserve"
	>
<style type="text/css">
<![CDATA[
	.st0{fill:#FFFFFF;stroke:#595959;stroke-miterlimit:10;}
	.st1{fill:#FF0303;}
]]>
</style>
<path id="Blue_1_" class="st0" d="M248.1,262.3c7.9,0,14.2-6.4,14.2-14.2V18.8c0-7.9-6.4-14.2-14.2-14.2H18.8
	C11,4.6,4.6,11,4.6,18.8v229.3c0,7.9,6.4,14.2,14.2,14.2H248.1L248.1,262.3z"/>
<path id="path40" class="st1" d="M181.6,28h-32c-31.4,0-58,23.9-58,70.3c0,27.8,12.9,48.4,35.9,58.5l-42.9,77.6
	c-1.4,2.5,0,4.5,2.2,4.5h19.9c1.7,0,2.8-0.6,3.4-2l39-76.2h14V237c0,0.8,0.8,2,2,2h17.4c1.7,0,2.2-0.8,2.2-2.2V30.8
	C184.7,28.8,183.5,28,181.6,28z M163.1,142.8h-11.8c-18.5,0-36.4-13.5-36.4-47.3c0-35.2,16.8-49.5,33.9-49.5h14.3V142.8z"/>
</svg>
